<?xml version="1.0" encoding="UTF-8"?>
<svg width="102px" height="102px" viewBox="0 0 102 102" version="1.1" xmlns="http://www.w3.org/2000/svg" xmlns:xlink="http://www.w3.org/1999/xlink">
    <!-- Generator: Sketch 54.1 (76490) - https://sketchapp.com -->
    <title>Group 7</title>
    <desc>Created with Sketch.</desc>
    <defs>
        <polygon id="path-1" points="0 0.6423125 26.4733538 0.6423125 26.4733538 46.9176203 0 46.9176203"></polygon>
        <polygon id="path-3" points="0.479180832 0.134397672 15.2882917 0.134397672 15.2882917 47.4790106 0.479180832 47.4790106"></polygon>
    </defs>
    <g id="Page-1" stroke="none" stroke-width="1" fill="none" fill-rule="evenodd">
        <g id="HC_Name-Copy-5" transform="translate(-559.000000, -333.000000)">
            <g id="Group-16" transform="translate(475.000000, 282.000000)">
                <g id="Group-7" transform="translate(84.000000, 51.000000)">
                    <circle id="Oval-Copy-3" stroke="#61B9B1" stroke-width="9" cx="51" cy="51" r="46.5"></circle>
                    <g id="Group-15" transform="translate(30.000000, 25.000000)">
                        <path d="M30.3962521,31.37925 C25.8185437,40.5481042 13.1048771,39.8359167 9.92108542,29.9324792 C9.78223125,29.5042708 9.47585625,29.2686667 9.13364792,29.1880417 C10.0008146,28.2169583 10.6583562,27.202875 10.9629396,25.8340417 C13.5778771,27.8227917 17.0895438,28.3701458 20.2634813,26.880375 C22.6929812,25.740875 22.8166063,24.2493125 25.8051063,24.0764167 C27.8950854,23.9545833 29.2334604,24.3021667 31.0976896,22.9342292 C35.0877313,20.0075417 35.1065438,14.7077917 32.1646271,11.0599583 C27.8628354,5.7270625 20.6110646,5.85785417 14.4020438,6.24485417 C12.9713979,6.3344375 12.9606479,8.573125 14.4020438,8.48264583 C18.7961063,8.20941667 23.6954188,7.79822917 27.6567938,10.1229167 C30.1266062,11.5714792 31.9532104,13.7689583 31.8842313,16.6929583 C32.1234187,18.2113958 31.6226479,19.5193125 30.3837104,20.6185 C28.6332521,22.0285417 26.8693563,22.3313333 25.0938146,21.5250833 C23.1892729,21.5250833 23.2761688,21.5313542 21.8723979,22.6242708 C20.5026688,23.6912083 19.6946271,24.9686667 17.7569396,25.364625 C15.1643979,25.8949583 12.5566271,24.897 10.9817521,22.7756667 C10.3851271,21.973 8.82548125,22.1190208 8.89714792,23.3409375 C9.11483542,27.063125 6.69339792,28.3737292 4.57027292,30.6249583 C3.58216875,31.6721875 5.16241875,33.2578125 6.15321042,32.207 C6.71758542,31.6076875 7.26583542,31.0773542 7.78004375,30.5756875 C11.5219396,42.0790833 26.8639812,43.4541875 32.3285646,32.5088958 C32.9699812,31.223375 31.0403563,30.08925 30.3962521,31.37925" id="Fill-1" fill="#61B9B1"></path>
                        <g id="Group-5" transform="translate(0.000000, 0.253879)">
                            <mask id="mask-2" fill="white">
                                <use xlink:href="#path-1"></use>
                            </mask>
                            <g id="Clip-4"></g>
                            <path d="M2.60884583,21.5240979 C2.91074167,16.0613063 4.03053333,11.0589729 8.3511375,7.32155625 C12.9503458,3.34584792 19.2158042,1.97163958 25.0781375,3.36107708 C26.4792208,3.69253542 27.0758458,1.53626458 25.6738667,1.20301458 C15.5124292,-1.20498542 3.623825,4.27213958 1.15311667,14.9863063 C-1.12319583,24.8592854 0.5117,35.8932646 1.45949167,45.8459729 C1.5947625,47.2676604 3.83345,47.2819938 3.69728333,45.8459729 C2.92865833,37.7798896 2.161825,29.6349729 2.60884583,21.5240979" id="Fill-3" fill="#61B9B1" mask="url(#mask-2)"></path>
                        </g>
                        <g id="Group-8" transform="translate(26.875000, 2.941379)">
                            <mask id="mask-4" fill="white">
                                <use xlink:href="#path-3"></use>
                            </mask>
                            <g id="Clip-7"></g>
                            <path d="M14.8241604,15.7921083 C14.0904729,8.31548333 10.1282021,0.0738166667 1.55955625,0.134733333 C0.120847917,0.145483333 0.117264583,2.383275 1.55955625,2.372525 C11.9324104,2.29817083 12.7520979,14.7574208 12.9348479,22.3800667 C13.0987854,29.269025 12.8174938,36.1552958 12.8174938,43.0442542 C10.6773479,44.3423167 8.35086875,45.0966083 5.82103542,45.2390458 C4.39038958,45.3196708 4.38053542,47.5583583 5.82103542,47.4768375 C8.96361875,47.3003583 11.9082229,46.35615 14.5339104,44.6119625 C14.9119521,44.3611292 15.0570771,43.9947333 15.0418479,43.6381917 C15.0445354,43.6023583 15.0517021,43.5701083 15.0517021,43.5324833 C15.0319938,34.3062958 15.7271604,24.9932125 14.8241604,15.7921083" id="Fill-6" fill="#61B9B1" mask="url(#mask-4)"></path>
                        </g>
                        <path d="M11.4324458,8.699975 C12.8711542,8.699975 12.8738417,6.46218333 11.4324458,6.46218333 C9.99284167,6.46218333 9.99015417,8.699975 11.4324458,8.699975" id="Fill-9" fill="#61B9B1"></path>
                        <path d="M32.3182625,30.0836958 C33.7578667,30.0836958 33.7605542,27.8459042 32.3182625,27.8459042 C30.8786583,27.8459042 30.8759708,30.0836958 32.3182625,30.0836958" id="Fill-11" fill="#61B9B1"></path>
                        <path d="M11.0326354,47.90845 C9.08151042,47.9192 7.40182292,47.5868458 5.54923958,46.9947 C4.17413542,46.5557417 3.58557292,48.7155958 4.95440625,49.1536583 C6.99242708,49.8031375 8.88711458,50.1587833 11.0326354,50.1462417 C12.4722396,50.139075 12.4749271,47.9003875 11.0326354,47.90845" id="Fill-13" fill="#61B9B1"></path>
                    </g>
                </g>
            </g>
        </g>
    </g>
</svg>