<?xml version="1.0" encoding="UTF-8"?>
<svg width="80px" height="80px" viewBox="0 0 80 80" version="1.1" xmlns="http://www.w3.org/2000/svg" xmlns:xlink="http://www.w3.org/1999/xlink">
    <!-- Generator: Sketch 54.1 (76490) - https://sketchapp.com -->
    <title>Group 10</title>
    <desc>Created with Sketch.</desc>
    <defs>
        <polygon id="path-1" points="0.000106721694 0.347555556 32.5445265 0.347555556 32.5445265 46 0.000106721694 46"></polygon>
        <polygon id="path-3" points="0.693264 0.48061345 12.8414 0.48061345 12.8414 36.5447925 0.693264 36.5447925"></polygon>
    </defs>
    <g id="Page-1" stroke="none" stroke-width="1" fill="none" fill-rule="evenodd">
        <g id="HC_Name-Copy-6" transform="translate(-687.000000, -291.000000)">
            <g id="Group-16" transform="translate(486.000000, 291.000000)">
                <g id="Group-10" transform="translate(201.000000, 0.000000)">
                    <circle id="Oval-Copy-3" fill="#FFFFFF" cx="40" cy="40" r="40"></circle>
                    <g id="Group-11" opacity="0.378836496" transform="translate(21.000000, 17.000000)">
                        <g id="Group-3">
                            <mask id="mask-2" fill="white">
                                <use xlink:href="#path-1"></use>
                            </mask>
                            <g id="Clip-2"></g>
                            <path d="M28.8119526,35.0650333 C24.3743211,43.783737 12.0496895,43.1065148 8.96245263,33.6901444 C8.82871579,33.2829593 8.53171579,33.0589222 8.19997895,32.9822556 C9.04061053,32.0588481 9.67803158,31.0945519 9.97329474,29.7929222 C12.5082158,31.6840333 15.9124263,32.2045148 18.9892421,30.7878852 C21.3444,29.7034778 21.4633737,28.2859963 24.3604263,28.1215889 C26.3873211,28.005737 27.6847421,28.3362556 29.4919263,27.0354778 C33.3598737,24.2533296 33.3781105,19.2129222 30.5262158,15.7441815 C26.3560579,10.6731074 19.3261895,10.7974778 13.3071632,11.1654778 C11.9194263,11.2498111 11.9098737,13.3785889 13.3071632,13.2934037 C17.5667684,13.0335889 22.3161632,12.6425889 26.1563211,14.8522926 C28.5505579,16.2305889 30.3212684,18.3201815 30.2544,21.1006259 C30.4862684,22.5445148 30.0008211,23.7882185 28.7997947,24.8325889 C27.1029,26.1742556 25.3929789,26.4613296 23.6717684,25.694663 C21.8255053,25.6963667 21.9097421,25.7014778 20.5489263,26.740737 C19.2211105,27.7552926 18.4377947,28.9700333 16.5594,29.3465519 C14.0461895,29.8508481 11.5182158,28.9018852 9.99153158,26.8847 C9.41229474,26.1205889 7.90124211,26.2602926 7.96984737,27.4222185 C8.16611053,30.6975889 6.16961053,32.0102926 4.23997895,33.8843667 C3.11624211,30.4488481 2.15316316,26.9741444 2.24521579,23.233663 C2.50747895,12.6315148 13.7682947,6.36614444 23.6561368,8.66444074 C25.0143474,8.97962593 25.5935842,6.92836667 24.2336368,6.61232963 C19.2011368,5.44273704 13.6805842,6.21451481 9.17955789,8.65762593 C10.8712421,1.09403333 24.3447947,0.427885185 27.7498737,6.9437 C28.3872947,8.1627 30.2596105,7.08766296 29.6239263,5.86951481 C24.9839526,-3.00933704 7.52521579,-0.801337037 6.84176842,9.76844074 C6.83308421,9.90558889 6.85218947,10.0248481 6.88432105,10.1338852 C4.34505789,12.0173296 2.29211053,14.5141074 1.10932105,17.5944037 C-2.54065263,27.0959593 3.87697895,36.0523296 5.16397895,45.2293296 C5.35242632,46.5803667 7.44358421,46.0053667 7.25600526,44.6637 C6.84263684,41.7171444 5.91863684,38.9009222 4.97466316,36.0915148 C5.09103158,36.0387 5.20392632,35.963737 5.31074211,35.8529963 C5.85784737,35.2831074 6.38932105,34.7788111 6.88779474,34.3017741 C10.5151895,45.2395519 25.3877684,46.5479963 30.6842684,36.1392185 C31.3069263,34.917663 29.4363474,33.8392185 28.8119526,35.0650333" id="Fill-1" fill="#262C35" mask="url(#mask-2)"></path>
                        </g>
                        <g id="Group-6" transform="translate(25.000000, 7.000000)">
                            <mask id="mask-4" fill="white">
                                <use xlink:href="#path-3"></use>
                            </mask>
                            <g id="Clip-5"></g>
                            <path d="M12.7575933,12.5168419 C12.17866,6.39205116 7.96232667,1.25937674 1.72319333,0.49012093 C0.344326667,0.320609302 0.355593333,2.47177209 1.72319333,2.63956279 C10.9947933,3.78226047 11.4541267,14.3332837 9.82219333,21.3340279 C8.70852667,26.1104698 6.45606,30.5324 6.32172667,35.5067488 C6.28446,36.8912372 8.44939333,36.8903767 8.48666,35.5067488 C8.70072667,27.5904698 13.5315267,20.6955628 12.7575933,12.5168419" id="Fill-4" fill="#262C35" mask="url(#mask-4)"></path>
                        </g>
                        <path d="M30,31 C28.6679104,31 28.6654236,33 30,33 C31.3320896,33 31.3345764,31 30,31" id="Fill-7" fill="#262C35"></path>
                        <path d="M9.99984449,13 C11.3321413,13 11.3346285,11 9.99984449,11 C8.66754769,11 8.66588957,13 9.99984449,13" id="Fill-9" fill="#262C35"></path>
                    </g>
                </g>
            </g>
        </g>
    </g>
</svg>