<?xml version="1.0" encoding="UTF-8"?>
<svg width="102px" height="102px" viewBox="0 0 102 102" version="1.1" xmlns="http://www.w3.org/2000/svg" xmlns:xlink="http://www.w3.org/1999/xlink">
    <!-- Generator: Sketch 54.1 (76490) - https://sketchapp.com -->
    <title>Group 13</title>
    <desc>Created with Sketch.</desc>
    <defs>
        <polygon id="path-1" points="0.659625601 0.325504288 26.5898889 0.325504288 26.5898889 39.1527691 0.659625601 39.1527691"></polygon>
    </defs>
    <g id="Page-1" stroke="none" stroke-width="1" fill="none" fill-rule="evenodd">
        <g id="HC_Name-Copy-5" transform="translate(-801.000000, -333.000000)">
            <g id="Group-16" transform="translate(475.000000, 282.000000)">
                <g id="Group-13" transform="translate(326.000000, 51.000000)">
                    <circle id="Oval-Copy-3" stroke="#61B9B1" stroke-width="9" cx="51" cy="51" r="46.5"></circle>
                    <g id="Group-14" transform="translate(26.000000, 28.000000)">
                        <path d="M34.6226222,31.0036222 C30.6481778,38.9641778 19.6107333,38.3458444 16.8457333,29.7475111 C16.7259556,29.3757333 16.4599556,29.1711778 16.1628444,29.1011778 C16.9157333,28.2580667 17.4858444,27.3776222 17.7502889,26.1891778 C20.0206222,27.9158444 23.0695111,28.3910667 25.8259556,27.0976222 C27.9345111,26.1082889 28.0418444,24.8132889 30.6365111,24.6631778 C32.4510667,24.5574 33.6138444,24.8591778 35.2316222,23.6715111 C38.6966222,21.1312889 38.7121778,16.5291778 36.1579556,13.3620667 C32.4230667,8.73195556 26.1277333,8.84551111 20.7361778,9.18151111 C19.4940667,9.25928889 19.4855111,11.2029556 20.7361778,11.1244 C24.5511778,10.8871778 28.8048444,10.5301778 32.2449556,12.5485111 C34.3892889,13.8061778 35.9751778,15.7140667 35.9152889,18.2527333 C36.1221778,19.5710667 35.6881778,20.7066222 34.6125111,21.6609556 C33.0927333,22.8851778 31.5612889,23.1480667 30.0197333,22.4480667 C28.3654,22.4488444 28.4408444,22.4542889 27.2228444,23.4024 C26.0328444,24.3287333 25.3312889,25.4386222 23.6489556,25.7816222 C21.3980667,26.2420667 19.1339556,25.3756222 17.7674,23.5338444 C17.2486222,22.8369556 15.8945111,22.9637333 15.9567333,24.0246222 C16.1457333,27.2562889 14.0434,28.3941778 12.2000667,30.3487333 C11.3429556,31.2579556 12.7141778,32.6346222 13.5744,31.7222889 C14.0651778,31.2019556 14.5404,30.7422889 14.9868444,30.3059556 C18.2356222,40.2934 31.5558444,41.4872889 36.3002889,31.9844 C36.8571778,30.8682889 35.1818444,29.8836222 34.6226222,31.0036222" id="Fill-1" fill="#61B9B1"></path>
                        <path d="M18.1579222,11.5288444 C19.4078111,11.5288444 19.4101444,9.58595556 18.1579222,9.58595556 C16.9080333,9.58595556 16.9057,11.5288444 18.1579222,11.5288444" id="Fill-3" fill="#61B9B1"></path>
                        <path d="M14.4725778,38.3074222 C11.8234667,40.7737556 8.00924444,39.8170889 6.19702222,36.8856444 C5.0148,34.9730889 4.95413333,32.7719778 5.1758,30.6245333 C5.22246667,30.1695333 4.83357778,29.8366444 4.46257778,29.6880889 C2.43102222,28.8722 1.56846667,26.0893111 2.09346667,24.1464222 C2.6628,22.0425333 4.78457778,20.9489778 6.62868889,20.2482 C7.24935556,20.0133111 7.66546667,19.1422 7.05724444,18.6249778 C5.40913333,17.2226444 4.97591111,14.4319778 6.0438,12.5046444 C7.09068889,10.6169778 9.23424444,10.1977556 11.0985778,9.65253333 C11.5061333,9.53353333 11.8149111,9.14697778 11.8118,8.71608889 C11.7690222,4.00508889 16.4753556,3.14953333 20.0764667,3.96775556 C21.2944667,4.24386667 21.8140222,2.37097778 20.5929111,2.09408889 C17.6816889,1.4322 14.8949111,0.9982 12.4721333,3.10753333 C11.3988,4.04086667 10.7306889,5.1282 10.1706889,6.42397778 C9.38513333,8.24086667 9.73124444,7.82786667 7.75102222,8.69508889 C3.86368889,10.3968667 2.19768889,15.5690889 4.73013333,18.9633111 C2.31357778,20.1105333 0.315466667,21.8185333 0.0308,24.7523111 C-0.1022,26.1149778 0.201911111,27.6596444 0.845133333,28.8652 C1.41602222,29.9354222 2.6838,30.6696444 3.13724444,31.5158667 C3.36902222,31.9483111 3.16368889,33.7045333 3.25468889,34.2528667 C3.40246667,35.1496444 3.62957778,36.0098667 4.00291111,36.8420889 C4.67957778,38.3533111 5.73502222,39.7120889 7.15213333,40.5925333 C9.99413333,42.3573111 13.4638,41.8992 15.8461333,39.6817556 C16.7631333,38.8269778 15.3872444,37.4549778 14.4725778,38.3074222" id="Fill-5" fill="#61B9B1"></path>
                        <g id="Group-9" transform="translate(21.777778, 0.452278)">
                            <mask id="mask-2" fill="white">
                                <use xlink:href="#path-1"></use>
                            </mask>
                            <g id="Clip-8"></g>
                            <path d="M26.5247111,22.3808667 C26.2781556,20.6635333 25.3036,19.1562 23.9526,18.0914222 C23.1903778,17.4909778 21.9894889,17.2506444 21.4668222,16.3849778 C21.0320444,15.6663111 21.3719333,13.3500889 21.1984889,12.4424222 C19.5184889,3.66597778 9.61037778,-2.03046667 1.30837778,1.27742222 C0.161155556,1.73475556 0.662044444,3.61464444 1.8256,3.15031111 C8.18704444,0.616311111 15.3270444,3.80364444 18.3199333,9.89208889 C19.4158222,12.1219778 19.0090444,14.1442 19.5239333,16.3849778 C19.6164889,16.7886444 19.4656,17.2452 19.6973778,17.6193111 C20.1080444,18.2812 20.5482667,18.2656444 21.0973778,18.6887556 C22.3107111,19.1406444 23.2922667,19.9277556 24.0420444,21.0493111 C25.3751556,24.4769778 24.2707111,26.4696444 20.7294889,27.0280889 C19.6934889,27.0452 19.5037111,28.2857556 20.2394889,28.8379778 C21.5391556,29.8140889 22.5137111,31.7663111 22.3332667,33.4362 C21.9824889,36.6779778 18.9087111,37.6268667 16.0674889,37.0170889 C14.8479333,36.7549778 14.3268222,38.6278667 15.5510444,38.8907556 C18.8566,39.6000889 22.5914889,39.0050889 23.9176,35.4125333 C24.7770444,33.0830889 24.1587111,30.5257556 22.6988222,28.6318667 C25.2444889,27.7708667 26.9509333,25.3519778 26.5247111,22.3808667" id="Fill-7" fill="#61B9B1" mask="url(#mask-2)"></path>
                        </g>
                        <path d="M12.3291,34.5203444 C13.5789889,34.5203444 13.5813222,32.5774556 12.3291,32.5774556 C11.0792111,32.5774556 11.0768778,34.5203444 12.3291,34.5203444" id="Fill-10" fill="#61B9B1"></path>
                        <path d="M36.0760556,30.0944778 C37.3259444,30.0944778 37.3282778,28.1515889 36.0760556,28.1515889 C34.8261667,28.1515889 34.8238333,30.0944778 36.0760556,30.0944778" id="Fill-12" fill="#61B9B1"></path>
                    </g>
                </g>
            </g>
        </g>
    </g>
</svg>