<?xml version="1.0" encoding="UTF-8"?>
<svg width="80px" height="80px" viewBox="0 0 80 80" version="1.1" xmlns="http://www.w3.org/2000/svg" xmlns:xlink="http://www.w3.org/1999/xlink">
    <!-- Generator: Sketch 54.1 (76490) - https://sketchapp.com -->
    <title>hair_5</title>
    <desc>Created with Sketch.</desc>
    <defs>
        <polygon id="path-1" points="0.000175874034 0.669864407 26.5038925 0.669864407 26.5038925 56.2372881 0.000175874034 56.2372881"></polygon>
    </defs>
    <g id="Page-1" stroke="none" stroke-width="1" fill="none" fill-rule="evenodd">
        <g id="HC_Name-Copy-5" transform="translate(-886.000000, -455.000000)">
            <g id="Group-16" transform="translate(475.000000, 282.000000)">
                <g id="hair_5" transform="translate(411.000000, 173.000000)">
                    <circle id="Oval-Copy-3" fill="#FFFFFF" cx="40" cy="40" r="40"></circle>
                    <g id="Group-12" opacity="0.378836496" transform="translate(19.000000, 12.000000)">
                        <path d="M16.9185966,5.17518305 C15.7817492,5.24565763 15.7739186,7.02460678 16.9185966,6.95342034 C20.4102915,6.73558983 24.303478,6.40884407 27.4527661,8.25684407 C29.4146644,9.40721695 30.8661559,11.1534203 30.8113424,13.4776576 C31.0006983,14.6835559 30.6041898,15.722878 29.6196814,16.5963356 C28.2279864,17.717522 26.8270373,17.9581322 25.416122,17.3167424 C23.9019864,17.3174542 23.9703254,17.3224373 22.8562576,18.1902 C21.7671051,19.0387424 21.1250034,20.053861 19.5845288,20.3685051 C17.5251051,20.7899288 15.4528678,19.9969119 14.2014102,18.3119288 C13.7273085,17.6726746 12.4872407,17.7894203 12.5441898,18.7604034 C12.7634441,22.5012508 10.1815119,22.3546068 8.96778305,24.7279627 C8.29863051,26.0356576 8.90798644,27.6216915 9.12937627,28.9372169 C10.0996475,34.7075898 9.74157966,40.5541322 9.54581695,46.3693525 C9.50737627,47.5140305 11.2856136,47.5126068 11.3240542,46.3693525 C11.509139,40.8580983 11.8664949,35.2920305 11.0606644,29.8106746 C10.753139,27.7206407 10.1053424,26.7411153 11.6600542,24.7094542 C11.6750034,24.6902339 11.6942237,24.6745729 11.7105966,24.6553525 C14.7673424,33.6590136 26.8448339,34.6954881 31.1644271,26.0449119 C31.674122,25.0240983 30.1400542,24.1221661 29.6282237,25.1472508 C25.9905966,32.4338949 15.8885288,31.8679627 13.3578508,23.9975898 C13.2766983,23.7455898 13.1200881,23.5797254 12.9342915,23.4836237 C13.0318169,23.3818271 13.1300542,23.2800305 13.2126305,23.1639966 C13.7486644,22.4072847 14.0590373,21.6071492 14.2142237,20.7621661 C16.2885966,22.3254203 19.0662915,22.7511153 21.5777492,21.5722678 C23.5076136,20.6667763 23.6058508,19.4822339 25.9799186,19.3441322 C27.6414102,19.2480305 28.7049356,19.523522 30.1863254,18.4372169 C33.3576814,16.1115559 33.3719186,11.9001661 31.0334441,9.00145424 C27.6157831,4.76301356 21.8532407,4.86765763 16.9185966,5.17518305" id="Fill-1" fill="#262C35"></path>
                        <g id="Group-5" transform="translate(0.000000, 0.042285)">
                            <mask id="mask-2" fill="white">
                                <use xlink:href="#path-1"></use>
                            </mask>
                            <g id="Clip-4"></g>
                            <path d="M25.4032373,3.04286441 C26.507339,3.35038983 26.9785932,1.63550847 25.8759153,1.32798305 C13.7336441,-2.05622034 5.56784746,8.15689831 4.68513559,19.3531017 C4.13628814,26.3016102 4.8609661,33.3903559 4.9129322,40.3538136 C4.93784746,43.7657797 5.26957627,47.412661 4.90154237,50.8025593 C4.64455932,53.1737797 3.4870678,54.6679831 0.851745763,54.4287966 C-0.287237288,54.3248644 -0.280118644,56.1038136 0.851745763,56.2070339 C3.90350847,56.484661 6.03767797,54.8601864 6.57157627,51.8304915 C6.89333898,50.0059831 6.67479661,48.069 6.68049153,46.2295424 C6.69259322,42.4694746 6.6890339,38.713678 6.59933898,34.954322 C6.43632203,28.1360847 5.4909661,20.769 7.35676271,14.1166271 C9.64398305,5.96649153 16.9619492,0.689440678 25.4032373,3.04286441" id="Fill-3" fill="#262C35" mask="url(#mask-2)"></path>
                        </g>
                        <path d="M41.0156339,51.0355525 C38.353261,49.7442305 39.0708203,46.6049085 39.025261,44.1952475 C38.9754305,41.5143661 38.8814644,38.8349085 38.8480068,36.1540271 C38.7810915,30.8242983 38.9789898,25.4931458 38.8060068,20.1648407 C38.5746508,13.0696881 37.3523797,2.65582373 28.0703797,2.65724746 C26.9264136,2.65724746 26.924278,4.43548475 28.0703797,4.43548475 C39.9051254,4.43406102 37.0854305,24.814739 37.0583797,32.3726034 C37.0405831,37.5435864 36.6846508,43.116061 37.3061085,48.2471797 C37.5460068,50.2254508 38.2536,51.6669763 40.117261,52.5710441 C41.1430576,53.0686373 42.0457017,51.5352814 41.0156339,51.0355525" id="Fill-6" fill="#262C35"></path>
                        <path d="M31.1808712,22.4618847 C30.0369051,22.4618847 30.0354814,24.240122 31.1808712,24.240122 C32.3248373,24.240122 32.3269729,22.4618847 31.1808712,22.4618847" id="Fill-8" fill="#262C35"></path>
                        <path d="M9.94104407,48.1480881 C8.79707797,48.1480881 8.79494237,49.9263254 9.94104407,49.9263254 C11.0842983,49.9263254 11.0864339,48.1480881 9.94104407,48.1480881" id="Fill-10" fill="#262C35"></path>
                    </g>
                </g>
            </g>
        </g>
    </g>
</svg>