<?xml version="1.0" encoding="UTF-8"?>
<svg width="67px" height="67px" viewBox="0 0 67 67" version="1.1" xmlns="http://www.w3.org/2000/svg" xmlns:xlink="http://www.w3.org/1999/xlink">
    <!-- Generator: Sketch 54.1 (76490) - https://sketchapp.com -->
    <title>Group 6</title>
    <desc>Created with Sketch.</desc>
    <g id="Page-1" stroke="none" stroke-width="1" fill="none" fill-rule="evenodd">
        <g id="HC_Name-Copy-4" transform="translate(-596.000000, -1014.000000)" stroke="#424242">
            <g id="Group-8" transform="translate(598.000000, 1016.000000)">
                <g id="Group-6">
                    <circle id="Oval" stroke-width="3" cx="31.5" cy="31.5" r="31.5"></circle>
                    <polyline id="Path" stroke-width="4" points="36 22 24 31.7013411 36 41"></polyline>
                </g>
            </g>
        </g>
    </g>
</svg>