<?xml version="1.0" encoding="UTF-8"?>
<svg width="47px" height="47px" viewBox="0 0 47 47" version="1.1" xmlns="http://www.w3.org/2000/svg" xmlns:xlink="http://www.w3.org/1999/xlink">
    <!-- Generator: Sketch 54.1 (76490) - https://sketchapp.com -->
    <title>Oval Copy 3</title>
    <desc>Created with Sketch.</desc>
    <g id="Page-1" stroke="none" stroke-width="1" fill="none" fill-rule="evenodd">
        <g id="HC_Name-Copy-4" transform="translate(-754.000000, -923.000000)" fill="#BF7B57" stroke="#424242" stroke-width="4">
            <circle id="Oval-Copy-3" cx="777.5" cy="946.5" r="21.5"></circle>
        </g>
    </g>
</svg>