<?xml version="1.0" encoding="UTF-8"?>
<svg width="17px" height="23px" viewBox="0 0 17 23" version="1.1" xmlns="http://www.w3.org/2000/svg" xmlns:xlink="http://www.w3.org/1999/xlink">
    <!-- Generator: Sketch 54.1 (76490) - https://sketchapp.com -->
    <title>Path</title>
    <desc>Created with Sketch.</desc>
    <g id="Page-1" stroke="none" stroke-width="1" fill="none" fill-rule="evenodd">
        <g id="HC_Name-Copy-5-(1)" transform="translate(-534.000000, -935.000000)" stroke="#424242" stroke-width="4">
            <polyline id="Path" points="549.743403 937 538 946.571426 549.743403 955.745563"></polyline>
        </g>
    </g>
</svg>